{
    "name": "AltUnityTesterEditor",
    "rootNamespace": "",
    "references": [
        "GUID:0acc523941302664db1f4e527237feb3",
        "GUID:478b585cfbb242f4c977b9aec772e042",
        "GUID:9d3c55d199e9d04489eb57bf4039c17c"
    ],
    "includePlatforms": [
        "Editor"
    ],
    "excludePlatforms": [],
    "allowUnsafeCode": false,
    "overrideReferences": true,
    "precompiledReferences": [
        "nunit.framework.dll",
        "NLog.dll",
        "Newtonsoft.Json.dll"
    ],
    "autoReferenced": true,
    "defineConstraints": [],
    "versionDefines": [],
    "noEngineReferences": false
}